<svg xmlns="http://www.w3.org/2000/svg" width="22.741" height="18.803" viewBox="0 0 22.741 18.803">
  <g id="Icon_feather-arrow-right" data-name="Icon feather-arrow-right" transform="translate(-6.5 -6.099)">
    <path id="Path_20" data-name="Path 20" d="M7.5,18H28.241" transform="translate(0 -2.5)" fill="none" stroke="#000" stroke-linecap="round" stroke-linejoin="round" stroke-width="2"/>
    <path id="Path_21" data-name="Path 21" d="M18,7.5l10.5,8L18,23.5" transform="translate(-0.259)" fill="none" stroke="#000" stroke-linecap="round" stroke-linejoin="round" stroke-width="2"/>
  </g>
</svg>
