<svg xmlns="http://www.w3.org/2000/svg" width="2323.97" height="720.245" viewBox="0 0 2323.97 720.245">
  <g id="Group_3148" data-name="Group 3148" transform="translate(-1431.887 656.418)">
    <line id="Line_52" data-name="Line 52" x1="180" y2="720" transform="translate(1432.372 -656.295)" fill="none" stroke="#1e1e1e" stroke-miterlimit="10" stroke-width="1"/>
    <line id="Line_53" data-name="Line 53" x1="181" y2="720" transform="translate(1480.372 -656.295)" fill="none" stroke="#1e1e1e" stroke-miterlimit="10" stroke-width="1"/>
    <line id="Line_54" data-name="Line 54" x1="181" y2="720" transform="translate(1529.372 -656.295)" fill="none" stroke="#1e1e1e" stroke-miterlimit="10" stroke-width="1"/>
    <line id="Line_55" data-name="Line 55" x1="182" y2="720" transform="translate(1577.372 -656.295)" fill="none" stroke="#1e1e1e" stroke-miterlimit="10" stroke-width="1"/>
    <line id="Line_56" data-name="Line 56" x1="182" y2="720" transform="translate(1626.372 -656.295)" fill="none" stroke="#1e1e1e" stroke-miterlimit="10" stroke-width="1"/>
    <line id="Line_57" data-name="Line 57" x1="181" y2="720" transform="translate(1675.372 -656.295)" fill="none" stroke="#1e1e1e" stroke-miterlimit="10" stroke-width="1"/>
    <line id="Line_58" data-name="Line 58" x1="180" y2="720" transform="translate(1724.372 -656.295)" fill="none" stroke="#1e1e1e" stroke-miterlimit="10" stroke-width="1"/>
    <line id="Line_59" data-name="Line 59" x1="180" y2="720" transform="translate(1773.372 -656.295)" fill="none" stroke="#1e1e1e" stroke-miterlimit="10" stroke-width="1"/>
    <line id="Line_60" data-name="Line 60" x1="181" y2="720" transform="translate(1821.372 -656.295)" fill="none" stroke="#1e1e1e" stroke-miterlimit="10" stroke-width="1"/>
    <line id="Line_61" data-name="Line 61" x1="182" y2="720" transform="translate(1869.372 -656.295)" fill="none" stroke="#1e1e1e" stroke-miterlimit="10" stroke-width="1"/>
    <line id="Line_62" data-name="Line 62" x1="182" y2="720" transform="translate(1918.372 -656.295)" fill="none" stroke="#1e1e1e" stroke-miterlimit="10" stroke-width="1"/>
    <line id="Line_63" data-name="Line 63" x1="181" y2="720" transform="translate(1967.372 -656.295)" fill="none" stroke="#1e1e1e" stroke-miterlimit="10" stroke-width="1"/>
    <line id="Line_64" data-name="Line 64" x1="181" y2="720" transform="translate(2016.372 -656.295)" fill="none" stroke="#1e1e1e" stroke-miterlimit="10" stroke-width="1"/>
    <line id="Line_65" data-name="Line 65" x1="180" y2="720" transform="translate(2065.372 -656.295)" fill="none" stroke="#1e1e1e" stroke-miterlimit="10" stroke-width="1"/>
    <line id="Line_66" data-name="Line 66" x1="180" y2="720" transform="translate(2114.372 -656.295)" fill="none" stroke="#1e1e1e" stroke-miterlimit="10" stroke-width="1"/>
    <line id="Line_67" data-name="Line 67" x1="181" y2="720" transform="translate(2162.372 -656.295)" fill="none" stroke="#1e1e1e" stroke-miterlimit="10" stroke-width="1"/>
    <line id="Line_68" data-name="Line 68" x1="182" y2="720" transform="translate(2210.372 -656.295)" fill="none" stroke="#1e1e1e" stroke-miterlimit="10" stroke-width="1"/>
    <line id="Line_69" data-name="Line 69" x1="181" y2="720" transform="translate(2259.372 -656.295)" fill="none" stroke="#1e1e1e" stroke-miterlimit="10" stroke-width="1"/>
    <line id="Line_70" data-name="Line 70" x1="181" y2="720" transform="translate(2308.372 -656.295)" fill="none" stroke="#1e1e1e" stroke-miterlimit="10" stroke-width="1"/>
    <line id="Line_71" data-name="Line 71" x1="181" y2="720" transform="translate(2357.372 -656.295)" fill="none" stroke="#1e1e1e" stroke-miterlimit="10" stroke-width="1"/>
    <line id="Line_72" data-name="Line 72" x1="180" y2="720" transform="translate(2406.372 -656.295)" fill="none" stroke="#1e1e1e" stroke-miterlimit="10" stroke-width="1"/>
    <line id="Line_73" data-name="Line 73" x1="181" y2="720" transform="translate(2454.372 -656.295)" fill="none" stroke="#1e1e1e" stroke-miterlimit="10" stroke-width="1"/>
    <line id="Line_74" data-name="Line 74" x1="181" y2="720" transform="translate(2503.372 -656.295)" fill="none" stroke="#1e1e1e" stroke-miterlimit="10" stroke-width="1"/>
    <line id="Line_75" data-name="Line 75" x1="181" y2="720" transform="translate(2551.372 -656.295)" fill="none" stroke="#1e1e1e" stroke-miterlimit="10" stroke-width="1"/>
    <line id="Line_76" data-name="Line 76" x1="181" y2="720" transform="translate(2600.372 -656.295)" fill="none" stroke="#1e1e1e" stroke-miterlimit="10" stroke-width="1"/>
    <line id="Line_77" data-name="Line 77" x1="181" y2="720" transform="translate(2649.372 -656.295)" fill="none" stroke="#1e1e1e" stroke-miterlimit="10" stroke-width="1"/>
    <line id="Line_78" data-name="Line 78" x1="181" y2="720" transform="translate(2698.372 -656.295)" fill="none" stroke="#1e1e1e" stroke-miterlimit="10" stroke-width="1"/>
    <line id="Line_79" data-name="Line 79" x1="181" y2="720" transform="translate(2746.372 -656.295)" fill="none" stroke="#1e1e1e" stroke-miterlimit="10" stroke-width="1"/>
    <line id="Line_80" data-name="Line 80" x1="181" y2="720" transform="translate(2795.372 -656.295)" fill="none" stroke="#1e1e1e" stroke-miterlimit="10" stroke-width="1"/>
    <line id="Line_81" data-name="Line 81" x1="180" y2="720" transform="translate(2844.372 -656.295)" fill="none" stroke="#1e1e1e" stroke-miterlimit="10" stroke-width="1"/>
    <line id="Line_82" data-name="Line 82" x1="181" y2="720" transform="translate(2892.372 -656.295)" fill="none" stroke="#1e1e1e" stroke-miterlimit="10" stroke-width="1"/>
    <line id="Line_83" data-name="Line 83" x1="181" y2="720" transform="translate(2941.372 -656.295)" fill="none" stroke="#1e1e1e" stroke-miterlimit="10" stroke-width="1"/>
    <line id="Line_84" data-name="Line 84" x1="181" y2="720" transform="translate(2990.372 -656.295)" fill="none" stroke="#1e1e1e" stroke-miterlimit="10" stroke-width="1"/>
    <line id="Line_85" data-name="Line 85" x1="182" y2="720" transform="translate(3038.372 -656.295)" fill="none" stroke="#1e1e1e" stroke-miterlimit="10" stroke-width="1"/>
    <line id="Line_86" data-name="Line 86" x1="180" y2="720" transform="translate(3087.372 -656.295)" fill="none" stroke="#1e1e1e" stroke-miterlimit="10" stroke-width="1"/>
    <line id="Line_87" data-name="Line 87" x1="180" y2="720" transform="translate(3136.372 -656.295)" fill="none" stroke="#1e1e1e" stroke-miterlimit="10" stroke-width="1"/>
    <line id="Line_88" data-name="Line 88" x1="180" y2="720" transform="translate(3185.372 -656.295)" fill="none" stroke="#1e1e1e" stroke-miterlimit="10" stroke-width="1"/>
    <line id="Line_89" data-name="Line 89" x1="181" y2="720" transform="translate(3233.372 -656.295)" fill="none" stroke="#1e1e1e" stroke-miterlimit="10" stroke-width="1"/>
    <line id="Line_90" data-name="Line 90" x1="181" y2="720" transform="translate(3282.372 -656.295)" fill="none" stroke="#1e1e1e" stroke-miterlimit="10" stroke-width="1"/>
    <line id="Line_91" data-name="Line 91" x1="182" y2="720" transform="translate(3330.372 -656.295)" fill="none" stroke="#1e1e1e" stroke-miterlimit="10" stroke-width="1"/>
    <line id="Line_92" data-name="Line 92" x1="181" y2="720" transform="translate(3379.372 -656.295)" fill="none" stroke="#1e1e1e" stroke-miterlimit="10" stroke-width="1"/>
    <line id="Line_93" data-name="Line 93" x1="180" y2="720" transform="translate(3428.372 -656.295)" fill="none" stroke="#1e1e1e" stroke-miterlimit="10" stroke-width="1"/>
    <line id="Line_94" data-name="Line 94" x1="180" y2="720" transform="translate(3477.372 -656.295)" fill="none" stroke="#1e1e1e" stroke-miterlimit="10" stroke-width="1"/>
    <line id="Line_95" data-name="Line 95" x1="180" y2="720" transform="translate(3526.372 -656.295)" fill="none" stroke="#1e1e1e" stroke-miterlimit="10" stroke-width="1"/>
    <line id="Line_96" data-name="Line 96" x1="181" y2="720" transform="translate(3574.372 -656.295)" fill="none" stroke="#1e1e1e" stroke-miterlimit="10" stroke-width="1"/>
  </g>
</svg>
