<svg xmlns="http://www.w3.org/2000/svg" xmlns:xlink="http://www.w3.org/1999/xlink" width="490" height="605" viewBox="0 0 490 605">
  <defs>
    <clipPath id="clip-path">
      <rect id="Rectangle_1720" data-name="Rectangle 1720" width="490" height="605" transform="translate(0 1326)" fill="#fff" stroke="#707070" stroke-width="1"/>
    </clipPath>
  </defs>
  <g id="Mask_Group_6" data-name="Mask Group 6" transform="translate(0 -1326)" clip-path="url(#clip-path)">
    <g id="Group_3264" data-name="Group 3264" transform="translate(-273.983 -1372.709)">
      <g id="Group_3263" data-name="Group 3263" transform="translate(437.626 2712.713)">
        <g id="Group_3262" data-name="Group 3262" transform="translate(0)">
          <path id="Path_1093" data-name="Path 1093" d="M643.2,705.481l-68.511-68.542L633,578.626a65.334,65.334,0,0,0,0-92.3l-67.166-67.167c-63.22-63.237-63.22-166.117,0-229.354l58.313-58.313L692.691,200l-58.329,58.33a65.334,65.334,0,0,0,0,92.3L701.528,417.8c63.236,63.238,63.236,166.134,0,229.355Z" transform="translate(-518.419 -131.49)" fill="#f5f5f5"/>
        </g>
      </g>
      <rect id="Rectangle_1718" data-name="Rectangle 1718" width="84.777" height="84.777" transform="translate(273.983 3000.702) rotate(-45)" fill="#f5f5f5"/>
      <rect id="Rectangle_1719" data-name="Rectangle 1719" width="84.777" height="84.777" transform="translate(705.468 3000.702) rotate(-45)" fill="#f5f5f5"/>
    </g>
  </g>
</svg>
