<svg xmlns="http://www.w3.org/2000/svg" xmlns:xlink="http://www.w3.org/1999/xlink" width="463" height="530" viewBox="0 0 463 530">
  <defs>
    <clipPath id="clip-path">
      <rect id="Rectangle_1740" data-name="Rectangle 1740" width="463" height="530" transform="translate(0 736)" fill="#fff" stroke="#707070" stroke-width="1"/>
    </clipPath>
  </defs>
  <g id="Mask_Group_12" data-name="Mask Group 12" transform="translate(0 -736)" clip-path="url(#clip-path)">
    <g id="Group_3209" data-name="Group 3209" transform="translate(-320.383 -1976.783)">
      <g id="Group_148" data-name="Group 148" transform="translate(425.168 2712.713)">
        <g id="Group_147" data-name="Group 147" transform="translate(0)">
          <path id="Path_7" data-name="Path 7" d="M633.7,661.782,570.4,598.458l53.873-53.873a60.36,60.36,0,0,0,0-85.275l-62.053-62.054c-58.407-58.423-58.407-153.47,0-211.893L616.1,131.49l63.325,63.294-53.888,53.889a60.36,60.36,0,0,0,0,85.275L687.587,396c58.422,58.423,58.422,153.486,0,211.893Z" transform="translate(-518.419 -131.49)" fill="#f5f5f5"/>
        </g>
      </g>
      <rect id="Rectangle_19" data-name="Rectangle 19" width="78.323" height="78.323" transform="translate(273.983 2978.777) rotate(-45)" fill="#f5f5f5"/>
      <rect id="Rectangle_22" data-name="Rectangle 22" width="78.323" height="78.323" transform="translate(672.618 2978.777) rotate(-45)" fill="#f5f5f5"/>
    </g>
  </g>
</svg>
