<svg xmlns="http://www.w3.org/2000/svg" width="16.119" height="16" viewBox="0 0 16.119 16">
  <path id="Icon_awesome-phone-alt" data-name="Icon awesome-phone-alt" d="M15.659,11.307l-3.526-1.5a.759.759,0,0,0-.881.216L9.69,11.916A11.627,11.627,0,0,1,4.112,6.379l1.908-1.55a.745.745,0,0,0,.217-.875L4.725.454A.762.762,0,0,0,3.86.019L.586.769A.751.751,0,0,0,0,1.5,14.553,14.553,0,0,0,14.608,16a.754.754,0,0,0,.737-.581l.756-3.25a.758.758,0,0,0-.441-.863Z" transform="translate(0 0)" fill="#928600"/>
</svg>
